<?xml version="1.0" encoding="UTF-8" standalone="no"?>
<!-- Created with Inkscape (http://www.inkscape.org/) -->

<svg
   xmlns:dc="http://purl.org/dc/elements/1.1/"
   xmlns:cc="http://creativecommons.org/ns#"
   xmlns:rdf="http://www.w3.org/1999/02/22-rdf-syntax-ns#"
   xmlns:svg="http://www.w3.org/2000/svg"
   xmlns="http://www.w3.org/2000/svg"
   xmlns:xlink="http://www.w3.org/1999/xlink"
   xmlns:sodipodi="http://sodipodi.sourceforge.net/DTD/sodipodi-0.dtd"
   xmlns:inkscape="http://www.inkscape.org/namespaces/inkscape"
   width="210mm"
   height="297mm"
   viewBox="0 0 210 297"
   version="1.1"
   id="svg10901"
   inkscape:version="0.92.2 5c3e80d, 2017-08-06"
   sodipodi:docname="assigning-displaying-firstname-variable.svg">
  <defs
     id="defs10895">
    <linearGradient
       inkscape:collect="always"
       id="linearGradient11528">
      <stop
         style="stop-color:#00adf3;stop-opacity:0"
         offset="0"
         id="stop11524" />
      <stop
         style="stop-color:#00adf3;stop-opacity:1"
         offset="1"
         id="stop11526" />
    </linearGradient>
    <linearGradient
       inkscape:collect="always"
       xlink:href="#linearGradient11528"
       id="linearGradient11530"
       x1="27.193027"
       y1="27.73921"
       x2="151.27643"
       y2="27.73921"
       gradientUnits="userSpaceOnUse"
       gradientTransform="matrix(-0.54403446,0,0,1,161.386,39.694897)" />
  </defs>
  <sodipodi:namedview
     id="base"
     pagecolor="#ffffff"
     bordercolor="#666666"
     borderopacity="1.0"
     inkscape:pageopacity="0.0"
     inkscape:pageshadow="2"
     inkscape:zoom="0.98994949"
     inkscape:cx="297.73812"
     inkscape:cy="583.63438"
     inkscape:document-units="mm"
     inkscape:current-layer="layer6"
     showgrid="false"
     inkscape:window-width="1920"
     inkscape:window-height="1036"
     inkscape:window-x="1281"
     inkscape:window-y="0"
     inkscape:window-maximized="0" />
  <metadata
     id="metadata10898">
    <rdf:RDF>
      <cc:Work
         rdf:about="">
        <dc:format>image/svg+xml</dc:format>
        <dc:type
           rdf:resource="http://purl.org/dc/dcmitype/StillImage" />
        <dc:title />
      </cc:Work>
    </rdf:RDF>
  </metadata>
  <g
     inkscape:label="Layer 1"
     inkscape:groupmode="layer"
     id="layer1" />
  <g
     inkscape:groupmode="layer"
     id="layer6"
     inkscape:label="flow">
    <path
       style="fill:url(#linearGradient11530);fill-opacity:1;stroke:none;stroke-width:0.19515319px;stroke-linecap:butt;stroke-linejoin:miter;stroke-opacity:1"
       d="m 146.51972,59.638349 h -43.73887 l -4.254404,7.686444 4.155234,7.905074 h 43.79599 v 0 z"
       id="path11481"
       inkscape:connector-curvature="0"
       sodipodi:nodetypes="ccccccc" />
    <rect
       style="opacity:1;fill:#00adee;fill-opacity:1;stroke:none;stroke-width:0.25190538;stroke-miterlimit:4;stroke-dasharray:none;stroke-opacity:1"
       id="rect11575"
       width="60.135639"
       height="14.432554"
       x="122.94398"
       y="108.84225" />
    <path
       style="fill:#00aef2;fill-opacity:0.30980392;stroke:none;stroke-width:0.25648165px;stroke-linecap:butt;stroke-linejoin:miter;stroke-opacity:1"
       d="M 40.489197,70.472736 H 85.128578 L 123.47314,94.938858 Z"
       id="path11581"
       inkscape:connector-curvature="0"
       sodipodi:nodetypes="cccc" />
    <rect
       y="94.409691"
       x="122.94398"
       height="14.432554"
       width="60.135639"
       id="rect11583"
       style="opacity:1;fill:#00aef2;fill-opacity:0.30980392;stroke:none;stroke-width:0.25190538;stroke-miterlimit:4;stroke-dasharray:none;stroke-opacity:1" />
    <path
       sodipodi:nodetypes="cccc"
       inkscape:connector-curvature="0"
       id="path11593"
       d="m 183.07962,123.2748 -60.13564,0 -38.344561,25.00066 z"
       style="fill:#00aef2;fill-opacity:0.30980392;stroke:none;stroke-width:0.25926834px;stroke-linecap:butt;stroke-linejoin:miter;stroke-opacity:1" />
    <rect
       y="111.52571"
       x="136.842"
       height="8.2853546"
       width="35.279572"
       id="rect11595"
       style="opacity:1;fill:#ffffff;fill-opacity:1;stroke:none;stroke-width:0.14618981;stroke-miterlimit:4;stroke-dasharray:none;stroke-opacity:1" />
    <rect
       style="fill:#00adf3;fill-opacity:0;stroke:#000000;stroke-width:0.24433425;stroke-miterlimit:4;stroke-dasharray:none;stroke-opacity:1"
       id="rect4601"
       width="165.3765"
       height="100.16541"
       x="19.224337"
       y="57.237514"
       inkscape:export-xdpi="96"
       inkscape:export-ydpi="96" />
  </g>
  <g
     inkscape:groupmode="layer"
     id="layer5"
     inkscape:label="code">
    <text
       xml:space="preserve"
       style="font-style:normal;font-variant:normal;font-weight:bold;font-stretch:normal;font-size:8.46666622px;line-height:1.25;font-family:'Courier New';-inkscape-font-specification:'Courier New Bold';letter-spacing:0px;word-spacing:0px;fill:#000000;fill-opacity:1;stroke:none;stroke-width:0.26458332"
       x="19.654762"
       y="69.836311"
       id="text11449"><tspan
         sodipodi:role="line"
         x="19.654762"
         y="69.836311"
         style="stroke-width:0.26458332"
         id="tspan11457">let firstName = 'Bernice'</tspan></text>
    <text
       xml:space="preserve"
       style="font-style:normal;font-variant:normal;font-weight:bold;font-stretch:normal;font-size:8.46666622px;line-height:1.25;font-family:'Courier New';-inkscape-font-specification:'Courier New Bold';letter-spacing:0px;word-spacing:0px;fill:#000000;fill-opacity:1;stroke:none;stroke-width:0.26458332"
       x="21.125036"
       y="154.08363"
       id="text11550"><tspan
         sodipodi:role="line"
         x="21.125036"
         y="154.08363"
         style="stroke-width:0.26458332"
         id="tspan11552">console.log(firstName)</tspan></text>
    <text
       xml:space="preserve"
       style="font-style:normal;font-variant:normal;font-weight:bold;font-stretch:normal;font-size:8.46666622px;line-height:1.25;font-family:'Courier New';-inkscape-font-specification:'Courier New Bold';letter-spacing:0px;word-spacing:0px;fill:#000000;fill-opacity:1;stroke:none;stroke-width:0.26458332"
       x="130.43829"
       y="153.4754"
       id="text11558"><tspan
         sodipodi:role="line"
         id="tspan11556"
         x="130.43829"
         y="153.4754"
         style="stroke-width:0.26458332">;</tspan></text>
    <text
       xml:space="preserve"
       style="font-style:normal;font-variant:normal;font-weight:bold;font-stretch:normal;font-size:8.46666622px;line-height:1.25;font-family:'Courier New';-inkscape-font-specification:'Courier New Bold';letter-spacing:0px;word-spacing:0px;fill:#000000;fill-opacity:1;stroke:none;stroke-width:0.26458332"
       x="145.12735"
       y="70.088158"
       id="text11562"><tspan
         sodipodi:role="line"
         id="tspan11560"
         x="145.12735"
         y="70.088158"
         style="stroke-width:0.26458332">;</tspan></text>
    <text
       id="text11579"
       y="118.47935"
       x="136.98607"
       style="font-style:normal;font-variant:normal;font-weight:bold;font-stretch:normal;font-size:8.46666622px;line-height:1.25;font-family:'Courier New';-inkscape-font-specification:'Courier New Bold';letter-spacing:0px;word-spacing:0px;fill:#00adee;fill-opacity:1;stroke:none;stroke-width:0.26458332;"
       xml:space="preserve"><tspan
         id="tspan11577"
         style="font-style:normal;font-variant:normal;font-weight:bold;font-stretch:normal;font-size:7.05555534px;font-family:'Comic Sans MS';-inkscape-font-specification:'Comic Sans MS Bold';stroke-width:0.26458332;fill:#00adee;fill-opacity:1;"
         y="118.47935"
         x="136.98607"
         sodipodi:role="line">firstName</tspan></text>
    <text
       xml:space="preserve"
       style="font-style:normal;font-variant:normal;font-weight:bold;font-stretch:normal;font-size:8.46666622px;line-height:1.25;font-family:Tahoma;-inkscape-font-specification:'Tahoma Bold';letter-spacing:0px;word-spacing:0px;fill:#00adee;fill-opacity:1;stroke:none;stroke-width:0.26458332"
       x="138.98015"
       y="105.90229"
       id="text11591"><tspan
         sodipodi:role="line"
         id="tspan11589"
         x="138.98015"
         y="105.90229"
         style="font-style:normal;font-variant:normal;font-weight:normal;font-stretch:normal;font-size:7.76111126px;font-family:Tahoma;-inkscape-font-specification:Tahoma;fill:#00adee;fill-opacity:1;stroke-width:0.26458332">'Bernice'</tspan></text>
    <text
       xml:space="preserve"
       style="font-style:normal;font-variant:normal;font-weight:bold;font-stretch:normal;font-size:8.46666622px;line-height:1.25;font-family:'Courier New';-inkscape-font-specification:'Courier New Bold';letter-spacing:0px;word-spacing:0px;fill:#000000;fill-opacity:1;stroke:none;stroke-width:0.26458332"
       x="177.73424"
       y="174.85782"
       id="text4599"><tspan
         sodipodi:role="line"
         id="tspan4597"
         x="177.73424"
         y="182.2821"
         style="stroke-width:0.26458332" /></text>
  </g>
</svg>
